{
	"format_version": "1.8.0",
	"animations": {
		"unsheath": {
			"loop": "hold_on_last_frame",
			"animation_length": 1,
			"bones": {
				"arm": {
					"rotation": {
						"0.0": [0, 0, 0],
						"0.5": [12.88568, -41.92831, 49.75948],
						"1.0": [0, 0, 0]
					}
				},
				"arm2": {
					"rotation": {
						"0.0": [0, 0, 0],
						"0.5": [0, -7.5, 27.5],
						"1.0": [0, 0, 0]
					}
				},
				"arm3": {
					"rotation": {
						"0.0": [0, 0, 0],
						"0.5": [33.66235, -8.31087, 18.25612],
						"1.0": [0, 0, 0]
					}
				},
				"arm4": {
					"rotation": {
						"0.0": [0, 0, 0],
						"0.5": [54.88878, -5.03461, -8.48825],
						"1.0": [0, 0, 0]
					}
				},
				"arm5": {
					"rotation": {
						"0.0": [0, 0, 0],
						"0.5": [82.20875, -50.57074, -68.73815],
						"1.0": [0, 0, 0]
					}
				},
				"hand": {
					"rotation": {
						"0.0": [0, 0, 0],
						"0.5": [37.68944, -20.25437, -14.97401],
						"1.0": [0, 0, 0]
					}
				},
				"sheath": {
					"rotation": {
						"0.0": [0, 0, 0],
						"0.5": {"pre": [0, 0, 0], "post": [184.55287, 22.19221, 35.39601]}
					},
					"position": {
						"0.0": [0, -42, 1],
						"0.5": {"pre": [0, -42, 1], "post": [-2.83673, 4.78695, -2.84514]}
					}
				},
				"sheath_arm": {
					"rotation": {
						"0.0": [0, 0, 0],
						"0.5": {"pre": [0, 0, 0], "post": [12.88568, -41.92831, 49.75948]},
						"1.0": [0, 0, 0]
					}
				},
				"sheath_arm2": {
					"rotation": {
						"0.0": [0, 0, 0],
						"0.5": {"pre": [0, 0, 0], "post": [0, -7.5, 27.5]},
						"1.0": [0, 0, 0]
					}
				},
				"sheath_arm3": {
					"rotation": {
						"0.0": [0, 0, 0],
						"0.5": {"pre": [0, 0, 0], "post": [33.66235, -8.31087, 18.25612]},
						"1.0": [0, 0, 0]
					}
				},
				"sheath_arm4": {
					"rotation": {
						"0.0": [0, 0, 0],
						"0.5": {"pre": [0, 0, 0], "post": [54.88878, -5.03461, -8.48825]},
						"1.0": [0, 0, 0]
					}
				},
				"sheath_arm5": {
					"rotation": {
						"0.0": [0, 0, 0],
						"0.5": {"pre": [0, 0, 0], "post": [82.20875, -50.57074, -68.73815]},
						"1.0": [0, 0, 0]
					}
				},
				"sheath_arm6": {
					"rotation": {
						"0.0": [0, 0, 0],
						"0.5": {"pre": [0, 0, 0], "post": [37.68944, -20.25437, -14.97401]},
						"1.0": [0, 0, 0]
					}
				},
				"face": {
					"position": {
						"0.0": [0, 0, -0.1],
						"0.5": {"pre": [0, 0, -0.1], "post": [0, 0, 0]}
					}
				}
			}
		}
	}
}