{
	"credit": "Made with Blockbench",
	"parent": "block/block",
	"textures": {
		"particle": "block/oak_log",
		"log": "block/oak_log",
		"twigs": "cobblemon:block/oak_twigs",
		"leaves": "block/oak_leaves"
	},
	"elements": [
		{
			"name": "bed",
			"from": [2, 0, 2],
			"to": [14, 2, 14],
			"rotation": {"angle": 0, "axis": "y", "origin": [2, 0, 2]},
			"faces": {
				"north": {"uv": [11, 1, 13, 13], "rotation": 90, "texture": "#log"},
				"east": {"uv": [3, 3, 5, 15], "rotation": 90, "texture": "#log"},
				"south": {"uv": [8, 2, 10, 14], "rotation": 90, "texture": "#log"},
				"west": {"uv": [0, 0, 2, 12], "rotation": 90, "texture": "#log"},
				"up": {"uv": [2, 2, 14, 14], "texture": "#log"},
				"down": {"uv": [2, 2, 14, 14], "texture": "#log"}
			}
		},
		{
			"name": "bed_layer",
			"from": [2, 2.1, 2],
			"to": [14, 2.1, 14],
			"rotation": {"angle": 0, "axis": "y", "origin": [2, 2.35, 2]},
			"faces": {
				"up": {"uv": [1, 2, 13, 14], "texture": "#twigs"},
				"down": {"uv": [13, 2, 1, 14], "texture": "#twigs"}
			}
		},
		{
			"name": "branch1",
			"from": [3, 1, 1],
			"to": [6, 4, 3],
			"rotation": {"angle": 0, "axis": "y", "origin": [8, 2.75, 8]},
			"faces": {
				"north": {"uv": [10, 11, 13, 14], "rotation": 90, "texture": "#log"},
				"east": {"uv": [11, 12, 14, 14], "rotation": 90, "texture": "#log"},
				"south": {"uv": [0, 6, 3, 9], "rotation": 90, "texture": "#log"},
				"west": {"uv": [1, 13, 4, 15], "rotation": 90, "texture": "#log"},
				"up": {"uv": [3, 0, 5, 3], "rotation": 270, "texture": "#log"},
				"down": {"uv": [1, 13, 4, 15], "texture": "#log"}
			}
		},
		{
			"name": "branch2",
			"from": [1, 1, 11],
			"to": [3, 6, 13],
			"rotation": {"angle": 0, "axis": "y", "origin": [8, 2.75, 8]},
			"faces": {
				"north": {"uv": [10, 8, 15, 10], "rotation": 90, "texture": "#log"},
				"east": {"uv": [3, 12, 8, 14], "rotation": 90, "texture": "#log"},
				"south": {"uv": [6, 12, 11, 14], "rotation": 90, "texture": "#log"},
				"west": {"uv": [10, 12, 15, 14], "rotation": 90, "texture": "#log"},
				"up": {"uv": [1, 11, 3, 13], "texture": "#log"},
				"down": {"uv": [1, 3, 3, 5], "texture": "#log"}
			}
		},
		{
			"name": "branch3",
			"from": [3, 1, 13],
			"to": [6, 5, 15],
			"rotation": {"angle": 0, "axis": "y", "origin": [8, 2.75, 8]},
			"faces": {
				"north": {"uv": [2, 5, 6, 8], "rotation": 90, "texture": "#log"},
				"east": {"uv": [1, 12, 5, 14], "rotation": 90, "texture": "#log"},
				"south": {"uv": [1, 6, 5, 9], "rotation": 90, "texture": "#log"},
				"west": {"uv": [10, 10, 14, 12], "rotation": 90, "texture": "#log"},
				"up": {"uv": [1, 13, 4, 15], "texture": "#log"},
				"down": {"uv": [1, 1, 4, 3], "texture": "#log"}
			}
		},
		{
			"name": "branch4",
			"from": [11, 1, 13],
			"to": [13, 4, 15],
			"rotation": {"angle": 0, "axis": "y", "origin": [8, 2.75, 8]},
			"faces": {
				"north": {"uv": [1, 7, 4, 9], "rotation": 90, "texture": "#log"},
				"east": {"uv": [1, 12, 4, 14], "rotation": 90, "texture": "#log"},
				"south": {"uv": [10, 12, 13, 14], "rotation": 90, "texture": "#log"},
				"west": {"uv": [10, 12, 13, 14], "rotation": 90, "texture": "#log"},
				"up": {"uv": [13, 10, 15, 12], "texture": "#log"},
				"down": {"uv": [13, 1, 15, 3], "texture": "#log"}
			}
		},
		{
			"name": "branch5",
			"from": [13, 1, 4],
			"to": [15, 6, 8],
			"rotation": {"angle": 0, "axis": "y", "origin": [8, 2.75, 8]},
			"faces": {
				"north": {"uv": [1, 11, 6, 13], "rotation": 90, "texture": "#log"},
				"east": {"uv": [9, 9, 14, 13], "rotation": 90, "texture": "#log"},
				"south": {"uv": [13, 11, 15, 16], "texture": "#log"},
				"west": {"uv": [1, 6, 6, 10], "rotation": 90, "texture": "#log"},
				"up": {"uv": [13, 1, 15, 5], "texture": "#log"},
				"down": {"uv": [13, 9, 15, 13], "texture": "#log"}
			}
		},
		{
			"name": "twigs1",
			"from": [4, 2, 2.5],
			"to": [16, 5, 2.5],
			"rotation": {"angle": 0, "axis": "y", "origin": [8, 2.75, 8]},
			"faces": {
				"north": {"uv": [0, 3, 12, 6], "texture": "#twigs"},
				"south": {"uv": [9, 3, 0, 6], "texture": "#twigs"}
			}
		},
		{
			"name": "twigs2",
			"from": [4, 0, 1.5],
			"to": [13, 3, 1.5],
			"rotation": {"angle": 0, "axis": "y", "origin": [8, 2.75, 8]},
			"faces": {
				"north": {"uv": [0, 0, 9, 3], "texture": "#twigs"},
				"south": {"uv": [9, 0, 0, 3], "texture": "#twigs"}
			}
		},
		{
			"name": "twigs3",
			"from": [2.5, 2.5, 2],
			"to": [2.5, 5.5, 11],
			"rotation": {"angle": 0, "axis": "y", "origin": [8, 2.75, 8]},
			"faces": {
				"east": {"uv": [9, 9, 0, 12], "texture": "#twigs"},
				"west": {"uv": [0, 9, 9, 12], "texture": "#twigs"}
			}
		},
		{
			"name": "twigs4",
			"from": [1.5, 0, 3],
			"to": [1.5, 3, 11],
			"rotation": {"angle": 0, "axis": "y", "origin": [8, 2.75, 8]},
			"faces": {
				"east": {"uv": [8, 8, 0, 11], "texture": "#twigs"},
				"west": {"uv": [0, 8, 8, 11], "texture": "#twigs"}
			}
		},
		{
			"name": "twigs5",
			"from": [6, 2.5, 13.5],
			"to": [13, 5.5, 13.5],
			"rotation": {"angle": 0, "axis": "y", "origin": [8, 2.75, 8]},
			"faces": {
				"north": {"uv": [16, 4, 9, 7], "texture": "#twigs"},
				"south": {"uv": [9, 4, 16, 7], "texture": "#twigs"}
			}
		},
		{
			"name": "twigs6",
			"from": [6, 0, 14.5],
			"to": [13, 4, 14.5],
			"rotation": {"angle": 0, "axis": "y", "origin": [8, 2.75, 8]},
			"faces": {
				"north": {"uv": [12, 0, 5, 4], "texture": "#twigs"},
				"south": {"uv": [5, 0, 12, 4], "texture": "#twigs"}
			}
		},
		{
			"name": "twigs7",
			"from": [13.5, 2.5, 2],
			"to": [13.5, 5.5, 14],
			"rotation": {"angle": 0, "axis": "y", "origin": [8, 2.75, 8]},
			"faces": {
				"east": {"uv": [3, 9, 15, 12], "texture": "#twigs"},
				"west": {"uv": [15, 9, 3, 12], "texture": "#twigs"}
			}
		},
		{
			"name": "twigs8",
			"from": [14.5, 1, 7],
			"to": [14.5, 4, 13],
			"rotation": {"angle": 0, "axis": "y", "origin": [8, 2.75, 8]},
			"faces": {
				"east": {"uv": [8, 6, 14, 9], "texture": "#twigs"},
				"west": {"uv": [14, 6, 8, 9], "texture": "#twigs"}
			}
		},
		{
			"name": "diagonal1",
			"from": [3, 0.5, 2],
			"to": [13, 4.5, 2],
			"rotation": {"angle": 45, "axis": "y", "origin": [8, 1, 8]},
			"faces": {
				"north": {"uv": [5, 10, 15, 14], "texture": "#twigs"},
				"south": {"uv": [15, 10, 5, 14], "texture": "#twigs"}
			}
		},
		{
			"name": "diagonal2",
			"from": [3.5, 0, 10.75],
			"to": [3.5, 6, 17.25],
			"rotation": {"angle": 45, "axis": "y", "origin": [2, 2, 14], "rescale": true},
			"faces": {
				"east": {"uv": [10, 10, 16, 16], "texture": "#twigs"},
				"west": {"uv": [16, 10, 10, 16], "texture": "#twigs"}
			}
		},
		{
			"name": "diagonal3",
			"from": [2.5, 0.5, 11.5],
			"to": [2.5, 5.5, 16.5],
			"rotation": {"angle": 45, "axis": "y", "origin": [2, 2, 14], "rescale": true},
			"faces": {
				"east": {"uv": [4, 0, 0, 5], "texture": "#twigs"},
				"west": {"uv": [0, 0, 4, 5], "texture": "#twigs"}
			}
		},
		{
			"name": "diagonal4",
			"from": [3, 0, 14],
			"to": [13, 5, 14],
			"rotation": {"angle": 45, "axis": "y", "origin": [8, 1, 8]},
			"faces": {
				"north": {"uv": [0, 9, 5, 0], "rotation": 90, "texture": "#twigs"},
				"south": {"uv": [0, 0, 5, 9], "rotation": 90, "texture": "#twigs"}
			}
		},
		{
			"name": "diagonal5",
			"from": [4, 0.5, 15.75],
			"to": [12, 3.5, 15.75],
			"rotation": {"angle": 45, "axis": "y", "origin": [8, 1, 8]},
			"faces": {
				"north": {"uv": [16, 8, 13, 16], "rotation": 90, "texture": "#twigs"},
				"south": {"uv": [16, 16, 13, 8], "rotation": 90, "texture": "#twigs"}
			}
		},
		{
			"name": "diagonal6",
			"from": [10, 3.5, 2],
			"to": [10, 5.5, 12],
			"rotation": {"angle": 22.5, "axis": "y", "origin": [5, 1, 0]},
			"faces": {
				"east": {"uv": [0, 12, 10, 14], "texture": "#twigs"},
				"west": {"uv": [10, 12, 0, 14], "texture": "#twigs"}
			}
		},
		{
			"name": "diagonal7",
			"from": [11, 0.5, 2],
			"to": [11, 2.5, 12],
			"rotation": {"angle": 22.5, "axis": "y", "origin": [5, 15, 0]},
			"faces": {
				"east": {"uv": [10, 12, 0, 14], "texture": "#twigs"},
				"west": {"uv": [0, 12, 10, 14], "texture": "#twigs"}
			}
		},
		{
			"name": "leaf_layer",
			"from": [2, 2.05, 2],
			"to": [14, 2.05, 14],
			"rotation": {"angle": 0, "axis": "y", "origin": [2, 2.35, 2]},
			"faces": {
				"up": {"uv": [1, 4, 13, 16], "texture": "#leaves", "tintindex": 0},
				"down": {"uv": [13, 4, 1, 16], "texture": "#leaves", "tintindex": 0}
			}
		},
		{
			"name": "leaf1",
			"from": [5.25, 0.66421, 1.91421],
			"to": [9.25, 3.66421, 1.91421],
			"rotation": {"angle": -22.5, "axis": "z", "origin": [7.25, 2.16421, 1.91421]},
			"faces": {
				"north": {"uv": [16, 0, 13, 4], "rotation": 270, "texture": "#leaves", "tintindex": 0},
				"south": {"uv": [13, 0, 16, 4], "rotation": 90, "texture": "#leaves", "tintindex": 0}
			}
		},
		{
			"name": "leaf2",
			"from": [2.46476, -1.78624, 2],
			"to": [2.46476, 2.21376, 5],
			"rotation": {"angle": 45, "axis": "z", "origin": [-2.03524, 0.46376, -4]},
			"faces": {
				"east": {"uv": [16, 0, 13, 4], "texture": "#leaves", "tintindex": 0},
				"west": {"uv": [13, 0, 16, 4], "texture": "#leaves", "tintindex": 0}
			}
		},
		{
			"name": "leaf3",
			"from": [0.5, 5.5, 11.5],
			"to": [4.5, 10.5, 11.5],
			"rotation": {"angle": 22.5, "axis": "z", "origin": [2.5, 5, 9]},
			"faces": {
				"north": {"uv": [2, 12, 7, 16], "rotation": 90, "texture": "#leaves", "tintindex": 0},
				"south": {"uv": [7, 12, 2, 16], "rotation": 270, "texture": "#leaves", "tintindex": 0}
			}
		},
		{
			"name": "leaf4",
			"from": [7.5, 2.91421, 15.41421],
			"to": [10.5, 6.91421, 15.41421],
			"rotation": {"angle": 45, "axis": "x", "origin": [8.5, 5.41421, 14.91421]},
			"faces": {
				"north": {"uv": [16, 0, 13, 4], "texture": "#leaves", "tintindex": 0},
				"south": {"uv": [13, 0, 16, 4], "texture": "#leaves", "tintindex": 0}
			}
		},
		{
			"name": "leaf5",
			"from": [13.5, 3, 7],
			"to": [13.5, 8, 11],
			"rotation": {"angle": -45, "axis": "z", "origin": [13.5, 3, 8.5]},
			"faces": {
				"east": {"uv": [7, 12, 2, 16], "rotation": 270, "texture": "#leaves", "tintindex": 0},
				"west": {"uv": [2, 12, 7, 16], "rotation": 90, "texture": "#leaves", "tintindex": 0}
			}
		},
		{
			"name": "leaf6",
			"from": [10.38569, 1.5, 2.93396],
			"to": [15.38569, 5.5, 2.93396],
			"rotation": {"angle": 22.5, "axis": "y", "origin": [10.38569, 1.5, -0.06604]},
			"faces": {
				"north": {"uv": [2, 12, 7, 16], "texture": "#leaves", "tintindex": 0},
				"south": {"uv": [7, 12, 2, 16], "texture": "#leaves", "tintindex": 0}
			}
		}
	],
	"groups": [
		{
			"name": "nest",
			"origin": [8, 8, 8],
			"color": 0,
			"children": [
				0,
				1,
				{
					"name": "branches",
					"origin": [8, 8, 8],
					"color": 0,
					"children": [2, 3, 4, 5, 6]
				},
				{
					"name": "twigs",
					"origin": [8, 8, 8],
					"color": 0,
					"children": [
						7,
						8,
						9,
						10,
						11,
						12,
						13,
						14,
						{
							"name": "diagonals",
							"origin": [5, 1, 0],
							"color": 0,
							"children": [15, 16, 17, 18, 19, 20, 21]
						}
					]
				},
				{
					"name": "leaves",
					"origin": [2, 2.35, 2],
					"color": 0,
					"children": [22, 23, 24, 25, 26, 27, 28]
				}
			]
		}
	]
}