{
	"format_version": "1.8.0",
	"animations": {
		"animation.unknown.new": {
			"loop": true,
			"bones": {
				"body": {
					"rotation": [22.5, 0, 0],
					"position": [0, -2, 0]
				},
				"torso": {
					"rotation": [-22.5, 0, 0]
				},
				"waist": {
					"rotation": [24.14867, -20.70481, -9.00717]
				},
				"hips": {
					"rotation": [-22.81179, 9.23186, -3.86032]
				},
				"tail_1": {
					"rotation": [49.98844, 27.36694, 17.18133]
				},
				"tail_2": {
					"rotation": [-22.5, 22.5, 0]
				},
				"tail_3": {
					"rotation": [-53.52293, 35.66466, -17.31806]
				},
				"tail_4": {
					"rotation": [45, 45, 0]
				},
				"tail_5": {
					"rotation": [45, 45, 0]
				},
				"tail_6": {
					"rotation": [0, 22.5, 0]
				},
				"neck": {
					"rotation": [62.26579, -15.69986, -16.32495],
					"position": [0, -1, 0]
				},
				"head": {
					"rotation": [-48.75474, -3.08149, 16.32258],
					"position": [0, -0.75, 0]
				},
				"mouth": {
					"rotation": [55, 0, 0]
				},
				"head_fluff_center_2": {
					"rotation": [0, 0, 22.5]
				},
				"head_fluff_center_3": {
					"rotation": [0, 22.5, 0]
				},
				"head_fluff_top_right": {
					"rotation": [0, 22.5, 0]
				},
				"head_fluff_top_2_right": {
					"rotation": [0, 22.5, 0]
				},
				"head_fluff_top_left": {
					"rotation": [0, 0, 0]
				},
				"head_fluff_top_2_left": {
					"rotation": [0, 22.5, 0]
				},
				"head_fluff_bottom_right": {
					"rotation": [0, 22.5, 0]
				},
				"head_fluff_bottom_left": {
					"rotation": [0, 22.5, 0]
				},
				"head_fluff_bottom_2_left": {
					"rotation": [0, 22.5, 0]
				},
				"ear_right": {
					"rotation": [0, 0, -17.5]
				},
				"ear_left": {
					"rotation": [0, 0, 17.5]
				},
				"front_leg_right": {
					"rotation": [-44.56145, 7.05302, 7.10708],
					"position": [0, -0.31732, -0.92388]
				},
				"elbow_right": {
					"rotation": [-42.73421, -15.69986, -16.32495]
				},
				"front_foot_right": {
					"rotation": [67.5, 0, 0]
				},
				"front_leg_left": {
					"rotation": [22.5, 0, 0],
					"position": [1.25, 1, 0]
				},
				"elbow_left": {
					"rotation": [-47.26579, -15.69986, 16.32495],
					"position": [-0.5, 0, 0]
				},
				"front_foot_left": {
					"rotation": [0, 10, 0]
				},
				"back_leg_right": {
					"rotation": [-46.64867, -20.70481, 9.00717],
					"position": [-5, -2.38896, -2.07193]
				},
				"knee_right": {
					"rotation": [67.5, 0, 0],
					"position": [0.76537, 0.33755, 1.86018]
				},
				"leg_right": {
					"rotation": [10, 0, 0]
				},
				"back_foot_right": {
					"rotation": [-57.5, 0, 0]
				},
				"back_leg_left": {
					"rotation": [-19.83264, -18.43795, -6.24926]
				},
				"knee_left": {
					"rotation": [0, 0, 12.5]
				},
				"leg_left": {
					"rotation": [7.5, 0, 0]
				},
				"back_foot_left": {
					"rotation": [-7.5, 0, 0]
				}
			}
		}
	}
}