{
	"format_version": "1.12.0",
	"minecraft:geometry": [
		{
			"description": {
				"identifier": "geometry.raticate_alolan",
				"texture_width": 64,
				"texture_height": 64,
				"visible_bounds_width": 5,
				"visible_bounds_height": 2.5,
				"visible_bounds_offset": [0, 0.75, 0]
			},
			"bones": [
				{
					"name": "raticate",
					"pivot": [0, 0, 0]
				},
				{
					"name": "body",
					"parent": "raticate",
					"pivot": [0, 5.5, 0],
					"cubes": [
						{"origin": [-5, 1, -3.5], "size": [10, 9, 9], "uv": [0, 0]}
					]
				},
				{
					"name": "head",
					"parent": "body",
					"pivot": [0, 10, -0.5],
					"cubes": [
						{"origin": [-4.5, 8.5, -4.5], "size": [9, 8, 9], "uv": [0, 18]},
						{"origin": [-5.25, 8.25, -5.25], "size": [4, 5, 5], "uv": [33, 13]},
						{"origin": [1.25, 8.25, -5.25], "size": [4, 5, 5], "uv": [31, 30]},
						{"origin": [-1.5, 11.04738, -4.51475], "size": [3, 2, 0], "pivot": [0, 13.00381, -4.58716], "rotation": [-5, 0, 0], "uv": [0, 35]},
						{"origin": [-1.5, 8.95262, -4.51475], "size": [3, 2, 0], "pivot": [0, 8.99619, -4.58716], "rotation": [5, 0, 0], "uv": [29, 0]},
						{"origin": [-3.5, 16.43209, -0.07453], "size": [7, 3, 0], "pivot": [0, 16.39279, 0.01604], "rotation": [-50, 0, 0], "uv": [0, 51]}
					]
				},
				{
					"name": "eyes",
					"parent": "head",
					"pivot": [0, 13.75, -3.5]
				},
				{
					"name": "eye_right",
					"parent": "eyes",
					"pivot": [-3, 13.75, -3.5],
					"cubes": [
						{"origin": [-4.5, 12.75, -4.5], "size": [3, 2, 2], "inflate": 0.01, "uv": [44, 30]}
					]
				},
				{
					"name": "eyelid_right",
					"parent": "eye_right",
					"pivot": [-2.9, 13.75, -3.4],
					"cubes": [
						{"origin": [-4.4, 12.75, -4.4], "size": [3, 2, 2], "inflate": 0.02, "uv": [54, 4], "mirror": true}
					]
				},
				{
					"name": "eye_left",
					"parent": "eyes",
					"pivot": [3, 13.75, -3.5],
					"cubes": [
						{"origin": [1.5, 12.75, -4.5], "size": [3, 2, 2], "inflate": 0.01, "uv": [44, 43]}
					]
				},
				{
					"name": "eyelid_left",
					"parent": "eye_left",
					"pivot": [2.9, 13.75, -3.4],
					"cubes": [
						{"origin": [1.4, 12.75, -4.4], "size": [3, 2, 2], "inflate": 0.02, "uv": [54, 0]}
					]
				},
				{
					"name": "whiskers_right",
					"parent": "head",
					"pivot": [-4.75, 12.25, -5],
					"rotation": [0, 10, 30],
					"cubes": [
						{"origin": [-9.75, 12.25, -5], "size": [5, 1, 0], "uv": [27, 25]},
						{"origin": [-7.75, 11.5, -5], "size": [3, 1, 0], "pivot": [-5.25, 12.25, -5], "rotation": [0, 0, -20], "uv": [29, 26]}
					]
				},
				{
					"name": "whiskers_left",
					"parent": "head",
					"pivot": [4.75, 12.25, -5],
					"rotation": [0, -10, -30],
					"cubes": [
						{"origin": [4.75, 11.5, -5], "size": [3, 1, 0], "pivot": [5.25, 12.25, -5], "rotation": [0, 0, 20], "uv": [45, 41]},
						{"origin": [4.75, 12.25, -5], "size": [5, 1, 0], "uv": [43, 40]}
					]
				},
				{
					"name": "whiskers_bottom_right",
					"parent": "head",
					"pivot": [-0.25, 9, -4.5],
					"rotation": [2.5, 10, -2.5],
					"cubes": [
						{"origin": [-3.25, 7, -4.5], "size": [3, 2, 0], "uv": [38, 9]}
					]
				},
				{
					"name": "whiskers_bottom_left",
					"parent": "head",
					"pivot": [0.25, 9, -4.5],
					"rotation": [2.5, -10, 2.5],
					"cubes": [
						{"origin": [0.25, 7, -4.5], "size": [3, 2, 0], "uv": [44, 9], "mirror": true}
					]
				},
				{
					"name": "ear_right",
					"parent": "head",
					"pivot": [-4.5, 15.25, 0],
					"rotation": [10, 40, 10],
					"cubes": [
						{"origin": [-10, 11.25, 0], "size": [6, 7, 0], "uv": [0, 41]}
					]
				},
				{
					"name": "ear_left",
					"parent": "head",
					"pivot": [4.5, 15.25, 0],
					"rotation": [10, -40, -10],
					"cubes": [
						{"origin": [4, 11.25, 0], "size": [6, 7, 0], "uv": [12, 41]}
					]
				},
				{
					"name": "hand_right",
					"parent": "body",
					"pivot": [-4.5, 7, -3.5],
					"cubes": [
						{"origin": [-5.5, 6.25, -5.25], "size": [2, 1, 2], "uv": [0, 18]}
					]
				},
				{
					"name": "finger_right1",
					"parent": "hand_right",
					"pivot": [-5.25, 7.25, -5.25],
					"rotation": [0, 10, 0],
					"cubes": [
						{"origin": [-5.25, 6.25, -7.25], "size": [0, 1, 2], "uv": [27, 19]}
					]
				},
				{
					"name": "finger_right2",
					"parent": "hand_right",
					"pivot": [-4.5, 7.25, -5.25],
					"cubes": [
						{"origin": [-4.5, 6.25, -7.25], "size": [0, 1, 2], "uv": [27, 18]}
					]
				},
				{
					"name": "finger_right3",
					"parent": "hand_right",
					"pivot": [-3.75, 7.25, -5.25],
					"rotation": [0, -10, 0],
					"cubes": [
						{"origin": [-3.75, 6.25, -7.25], "size": [0, 1, 2], "uv": [27, 20]}
					]
				},
				{
					"name": "hand_left",
					"parent": "body",
					"pivot": [4.5, 7, -3.5],
					"cubes": [
						{"origin": [3.5, 6.25, -5.25], "size": [2, 1, 2], "uv": [0, 21]}
					]
				},
				{
					"name": "finger_left1",
					"parent": "hand_left",
					"pivot": [3.75, 7.25, -5.25],
					"rotation": [0, 10, 0],
					"cubes": [
						{"origin": [3.75, 6.25, -7.25], "size": [0, 1, 2], "uv": [29, 0]}
					]
				},
				{
					"name": "finger_left2",
					"parent": "hand_left",
					"pivot": [4.5, 7.25, -5.25],
					"cubes": [
						{"origin": [4.5, 6.25, -7.25], "size": [0, 1, 2], "uv": [29, 2]}
					]
				},
				{
					"name": "finger_left3",
					"parent": "hand_left",
					"pivot": [5.25, 7.25, -5.25],
					"rotation": [0, -10, 0],
					"cubes": [
						{"origin": [5.25, 6.25, -7.25], "size": [0, 1, 2], "uv": [29, 1]}
					]
				},
				{
					"name": "foot_right",
					"parent": "body",
					"pivot": [-3, 1, 1],
					"cubes": [
						{"origin": [-4.5, 0, -2], "size": [3, 1, 5], "uv": [0, 35]},
						{"origin": [-4, 1, -0.5], "size": [2, 2, 3], "pivot": [-3, 1, 2.5], "rotation": [10, 0, 0], "uv": [11, 35]}
					]
				},
				{
					"name": "toe_right",
					"parent": "foot_right",
					"pivot": [-3, 0, -2],
					"cubes": [
						{"origin": [-4.25, 0, -5], "size": [0, 1, 3], "pivot": [-4.25, 0.5, -2], "rotation": [0, 10, 0], "uv": [0, 22]},
						{"origin": [-3, 0, -5], "size": [0, 1, 3], "uv": [0, 21]},
						{"origin": [-1.75, 0, -5], "size": [0, 1, 3], "pivot": [-1.75, 0.5, -2], "rotation": [0, -10, 0], "uv": [0, 5]}
					]
				},
				{
					"name": "foot_left",
					"parent": "body",
					"pivot": [3, 1, 1],
					"cubes": [
						{"origin": [1.5, 0, -2], "size": [3, 1, 5], "uv": [16, 35]},
						{"origin": [2, 1, -0.5], "size": [2, 2, 3], "pivot": [3, 1, 2.5], "rotation": [10, 0, 0], "uv": [36, 40]}
					]
				},
				{
					"name": "toe_left",
					"parent": "foot_left",
					"pivot": [3, 0, -2],
					"cubes": [
						{"origin": [1.75, 0, -5], "size": [0, 1, 3], "pivot": [1.75, 0.5, -2], "rotation": [0, 10, 0], "uv": [27, 15]},
						{"origin": [3, 0, -5], "size": [0, 1, 3], "uv": [27, 16]},
						{"origin": [4.25, 0, -5], "size": [0, 1, 3], "pivot": [4.25, 0.5, -2], "rotation": [0, -10, 0], "uv": [0, 23]}
					]
				},
				{
					"name": "tail",
					"parent": "body",
					"pivot": [0, 4.5, 5.5],
					"cubes": [
						{"origin": [-1.5, 1.5, 4.5], "size": [3, 3, 6], "inflate": 0.02, "uv": [29, 0]}
					]
				},
				{
					"name": "tail2",
					"parent": "tail",
					"pivot": [0, 2, 10.5],
					"cubes": [
						{"origin": [-1, 2, 10.5], "size": [2, 2, 5], "inflate": 0.02, "uv": [27, 40]}
					]
				},
				{
					"name": "tail3",
					"parent": "tail2",
					"pivot": [0, 2, 15.5],
					"cubes": [
						{"origin": [-1, 2, 15.5], "size": [2, 2, 5], "inflate": 0.02, "uv": [36, 23]}
					]
				},
				{
					"name": "tail4",
					"parent": "tail3",
					"pivot": [0, 2.5, 20.5],
					"cubes": [
						{"origin": [-0.5, 2.5, 20.5], "size": [1, 1, 5], "inflate": 0.02, "uv": [41, 0]}
					]
				}
			]
		}
	]
}