{
	"format_version": "1.12.0",
	"minecraft:geometry": [
		{
			"description": {
				"identifier": "geometry.exeggcute",
				"texture_width": 64,
				"texture_height": 64,
				"visible_bounds_width": 3,
				"visible_bounds_height": 1.5,
				"visible_bounds_offset": [0, 0.25, 0]
			},
			"bones": [
				{
					"name": "exeggcute",
					"pivot": [0, 0, 0]
				},
				{
					"name": "body",
					"parent": "exeggcute",
					"pivot": [0, 0, 0]
				},
				{
					"name": "egg",
					"parent": "body",
					"pivot": [0, 0, -4],
					"cubes": [
						{"origin": [-3, 0, -7], "size": [6, 7, 6], "uv": [0, 27]}
					]
				},
				{
					"name": "eye_right",
					"parent": "egg",
					"pivot": [1.65, 5, -7],
					"rotation": [0, 0, -12.5],
					"cubes": [
						{"origin": [0.65, 4, -7], "size": [2, 2, 0], "inflate": 0.01, "uv": [16, 43]}
					]
				},
				{
					"name": "eyelid_right",
					"parent": "eye_right",
					"pivot": [1.65, 5, -6.4],
					"cubes": [
						{"origin": [0.65, 4, -6.9], "size": [2, 2, 1], "inflate": 0.02, "uv": [42, 0]}
					]
				},
				{
					"name": "eye_left",
					"parent": "egg",
					"pivot": [-1.65, 5, -7],
					"rotation": [0, 0, 12.5],
					"cubes": [
						{"origin": [-2.65, 4, -7], "size": [2, 2, 0], "inflate": 0.01, "uv": [12, 43]}
					]
				},
				{
					"name": "eyelid_left",
					"parent": "eye_left",
					"pivot": [-1.65, 5, -6.4],
					"cubes": [
						{"origin": [-2.65, 4, -6.9], "size": [2, 2, 1], "inflate": 0.02, "uv": [18, 40]}
					]
				},
				{
					"name": "mouth",
					"parent": "egg",
					"pivot": [0, 3, -7],
					"rotation": [0, 0, -2.5],
					"cubes": [
						{"origin": [-1.5, 2.5, -7], "size": [3, 1, 0], "inflate": 0.01, "uv": [5, 26]}
					]
				},
				{
					"name": "egg2",
					"parent": "body",
					"pivot": [-7, 0, -9],
					"cubes": [
						{"origin": [-10, 0, -12], "size": [6, 7, 6], "uv": [24, 0]}
					]
				},
				{
					"name": "eye_right2",
					"parent": "egg2",
					"pivot": [-5.35, 3.5, -12],
					"rotation": [0, 0, -5],
					"cubes": [
						{"origin": [-6.35, 2.5, -12], "size": [2, 2, 0], "inflate": 0.01, "uv": [42, 31]}
					]
				},
				{
					"name": "eyelid_right2",
					"parent": "eye_right2",
					"pivot": [-5.35, 3.5, -11.4],
					"cubes": [
						{"origin": [-6.35, 2.5, -11.9], "size": [2, 2, 1], "inflate": 0.02, "uv": [12, 40]}
					]
				},
				{
					"name": "eye_left2",
					"parent": "egg2",
					"pivot": [-8.65, 3.5, -12],
					"rotation": [0, 0, 5],
					"cubes": [
						{"origin": [-9.65, 2.5, -12], "size": [2, 2, 0], "inflate": 0.01, "uv": [42, 29]}
					]
				},
				{
					"name": "eyelid_left2",
					"parent": "eye_left2",
					"pivot": [-8.65, 3.5, -11.4],
					"cubes": [
						{"origin": [-9.65, 2.5, -11.9], "size": [2, 2, 1], "inflate": 0.02, "uv": [39, 33]}
					]
				},
				{
					"name": "mouth2",
					"parent": "egg2",
					"pivot": [-7, 1.75, -12],
					"cubes": [
						{"origin": [-7.5, 1.25, -12], "size": [1, 1, 0], "inflate": 0.01, "uv": [4, 32]}
					]
				},
				{
					"name": "egg3",
					"parent": "body",
					"pivot": [7, 0, -9],
					"cubes": [
						{"origin": [4, 0, -12], "size": [6, 7, 6], "uv": [18, 20]}
					]
				},
				{
					"name": "eye_right3",
					"parent": "egg3",
					"pivot": [8.75, 3.75, -12],
					"rotation": [0, 0, -7.5],
					"cubes": [
						{"origin": [7.75, 2.75, -12], "size": [2, 2, 0], "inflate": 0.01, "uv": [24, 43]}
					]
				},
				{
					"name": "eyelid_right3",
					"parent": "eye_right3",
					"pivot": [8.75, 3.75, -11.4],
					"cubes": [
						{"origin": [7.75, 2.75, -11.9], "size": [2, 2, 1], "inflate": 0.02, "uv": [42, 13]}
					]
				},
				{
					"name": "eye_left3",
					"parent": "egg3",
					"pivot": [5.25, 3.75, -12],
					"rotation": [0, 0, 7.5],
					"cubes": [
						{"origin": [4.25, 2.75, -12], "size": [2, 2, 0], "inflate": 0.01, "uv": [20, 43]}
					]
				},
				{
					"name": "eyelid_left3",
					"parent": "eye_left3",
					"pivot": [5.25, 3.75, -11.4],
					"cubes": [
						{"origin": [4.25, 2.75, -11.9], "size": [2, 2, 1], "inflate": 0.02, "uv": [42, 3]}
					]
				},
				{
					"name": "mouth3",
					"parent": "egg3",
					"pivot": [7, 1.75, -12],
					"cubes": [
						{"origin": [6, 1.25, -12], "size": [2, 1, 0], "inflate": 0.01, "uv": [36, 25]}
					]
				},
				{
					"name": "egg4",
					"parent": "body",
					"pivot": [0, 0, 4],
					"cubes": [
						{"origin": [-3, 0, 1], "size": [6, 7, 6], "uv": [0, 13]}
					]
				},
				{
					"name": "eye_right4",
					"parent": "egg4",
					"pivot": [1.65, 4.75, 1],
					"rotation": [0, 0, 10],
					"cubes": [
						{"origin": [0.65, 3.75, 1], "size": [2, 2, 0], "inflate": 0.01, "uv": [42, 27]}
					]
				},
				{
					"name": "eyelid_right4",
					"parent": "eye_right4",
					"pivot": [1.65, 4.75, 1.6],
					"cubes": [
						{"origin": [0.65, 3.75, 1.1], "size": [2, 2, 1], "inflate": 0.02, "uv": [0, 29]}
					]
				},
				{
					"name": "eye_left4",
					"parent": "egg4",
					"pivot": [-1.65, 4.75, 1],
					"rotation": [0, 0, -10],
					"cubes": [
						{"origin": [-2.65, 3.75, 1], "size": [2, 2, 0], "inflate": 0.01, "uv": [42, 25]}
					]
				},
				{
					"name": "eyelid_left4",
					"parent": "eye_left4",
					"pivot": [-1.65, 4.75, 1.6],
					"cubes": [
						{"origin": [-2.65, 3.75, 1.1], "size": [2, 2, 1], "inflate": 0.02, "uv": [0, 26]}
					]
				},
				{
					"name": "mouth4",
					"parent": "egg4",
					"pivot": [0.05, 3.1, 1],
					"rotation": [0, 0, -2.5],
					"cubes": [
						{"origin": [-0.95, 2.35, 1], "size": [2, 1, 0], "inflate": 0.01, "uv": [0, 32]}
					]
				},
				{
					"name": "egg5",
					"parent": "body",
					"pivot": [-8, 0, -1],
					"cubes": [
						{"origin": [-5, 1, -4], "size": [0, 6, 6], "uv": [0, 34]},
						{"origin": [-11, 1, 2], "size": [6, 5, 0], "uv": [36, 20]},
						{"origin": [-11, 1, -4], "size": [6, 6, 0], "uv": [18, 0]},
						{"origin": [-11, 0, -4], "size": [6, 1, 6], "uv": [24, 13]},
						{"origin": [-11, 1, -4], "size": [0, 6, 6], "uv": [18, 7]}
					]
				},
				{
					"name": "yoke",
					"parent": "egg5",
					"pivot": [-8, 1, -1],
					"cubes": [
						{"origin": [-10.5, 1, -3.5], "size": [5, 5, 5], "uv": [24, 33]}
					]
				},
				{
					"name": "eye_right5",
					"parent": "egg5",
					"pivot": [-6.35, 3.25, -4],
					"rotation": [0, 0, -2.5],
					"cubes": [
						{"origin": [-7.35, 2.25, -4], "size": [2, 2, 0], "inflate": 0.01, "uv": [39, 36]}
					]
				},
				{
					"name": "eyelid_right5",
					"parent": "eye_right5",
					"pivot": [-6.35, 3.25, -3.4],
					"cubes": [
						{"origin": [-7.35, 2.25, -3.9], "size": [2, 2, 1], "inflate": 0.02, "uv": [0, 13]}
					]
				},
				{
					"name": "eye_left5",
					"parent": "egg5",
					"pivot": [-9.65, 3.25, -4],
					"rotation": [0, 0, 2.5],
					"cubes": [
						{"origin": [-10.65, 2.25, -4], "size": [2, 2, 0], "inflate": 0.01, "uv": [42, 16]}
					]
				},
				{
					"name": "eyelid_left5",
					"parent": "eye_left5",
					"pivot": [-9.65, 3.25, -3.4],
					"cubes": [
						{"origin": [-10.65, 2.25, -3.9], "size": [2, 2, 1], "inflate": 0.02, "uv": [0, 16]}
					]
				},
				{
					"name": "mouth5",
					"parent": "egg5",
					"pivot": [-7.95, 1.55, -4],
					"rotation": [0, 0, -2.5],
					"cubes": [
						{"origin": [-8.45, 1.05, -4], "size": [1, 1, 0], "inflate": 0.01, "uv": [15, 26]}
					]
				},
				{
					"name": "egg6",
					"parent": "body",
					"pivot": [8, 0, -1],
					"cubes": [
						{"origin": [5, 0, -4], "size": [6, 7, 6], "uv": [0, 0]}
					]
				},
				{
					"name": "eye_right6",
					"parent": "egg6",
					"pivot": [9.75, 3.75, -4],
					"rotation": [0, 0, -7.5],
					"cubes": [
						{"origin": [8.75, 2.75, -4], "size": [2, 2, 0], "inflate": 0.01, "uv": [24, 35]}
					]
				},
				{
					"name": "eyelid_right6",
					"parent": "eye_right6",
					"pivot": [9.75, 3.75, -3.4],
					"cubes": [
						{"origin": [8.75, 2.75, -3.9], "size": [2, 2, 1], "inflate": 0.02, "uv": [0, 3]}
					]
				},
				{
					"name": "eye_left6",
					"parent": "egg6",
					"pivot": [6.25, 3.75, -4],
					"rotation": [0, 0, 7.5],
					"cubes": [
						{"origin": [5.25, 2.75, -4], "size": [2, 2, 0], "inflate": 0.01, "uv": [24, 33]}
					]
				},
				{
					"name": "eyelid_left6",
					"parent": "eye_left6",
					"pivot": [6.25, 3.75, -3.4],
					"cubes": [
						{"origin": [5.25, 2.75, -3.9], "size": [2, 2, 1], "inflate": 0.02, "uv": [0, 0]}
					]
				},
				{
					"name": "mouth6",
					"parent": "egg6",
					"pivot": [8, 1.75, -4],
					"cubes": [
						{"origin": [7, 1.25, -4], "size": [2, 1, 0], "inflate": 0.01, "uv": [11, 26]}
					]
				}
			]
		}
	]
}