{
	"format_version": "1.8.0",
	"animations": {
		"pose": {
			"loop": true,
			"bones": {
				"neck_left": {
					"rotation": [50, -27.5, 0]
				},
				"neck_left2": {
					"rotation": [-27.5, 0, 0]
				},
				"head": {
					"rotation": [-40.31179, -9.23186, 3.86032]
				},
				"neck_right": {
					"rotation": [27.5, 32.5, 0]
				},
				"neck_right2": {
					"rotation": [-25, 0, 0]
				},
				"head2": {
					"rotation": [-5, 0, 0]
				},
				"jaw2": {
					"rotation": [30, 0, 0]
				},
				"leg_right": {
					"rotation": [22.5, 35, 0]
				},
				"leg_right2": {
					"rotation": [-35, 0, 0]
				},
				"foot_right": {
					"rotation": [12.5, 0, 0]
				},
				"toe_right": {
					"rotation": [0, -17.5, 0]
				},
				"toe_right2": {
					"rotation": [0, 30, 0]
				},
				"toe_right3": {
					"rotation": [0, -30, 0]
				},
				"toe_right4": {
					"rotation": [0, 17.5, 0]
				},
				"leg_left": {
					"rotation": [25, -45, 0]
				},
				"leg_left2": {
					"rotation": [-77.5, 0, 0]
				},
				"foot_left": {
					"rotation": [42.5, 0, 0]
				},
				"toe_left": {
					"rotation": [0, 17.5, 0]
				},
				"toe_left2": {
					"rotation": [0, -30, 0]
				},
				"toe_left3": {
					"rotation": [0, 30, 0]
				},
				"toe_left4": {
					"rotation": [0, -17.5, 0]
				}
			}
		}
	}
}