{
	"format_version": "1.10.0",
	"particle_effect": {
		"description": {
			"identifier": "cobblemon:splash_drips",
			"basic_render_parameters": {
				"material": "particles_alpha",
				"texture": "textures/particles/drip"
			}
		},
		"curves": {
			"variable.arc": {
				"type": "linear",
				"input": "v.particle_age",
				"horizontal_range": "v.particle_lifetime",
				"nodes": [11.49, 0, -20.5, -42.96, -87.67, -145.66]
			},
			"variable.size": {
				"type": "linear",
				"input": "v.particle_age",
				"horizontal_range": "v.particle_lifetime",
				"nodes": [1, 1, 0]
			}
		},
		"components": {
			"minecraft:emitter_rate_instant": {
				"num_particles": 10
			},
			"minecraft:emitter_lifetime_once": {
				"active_time": 1
			},
			"minecraft:emitter_shape_disc": {
				"offset": [0, 0.1, 0],
				"radius": 0.001,
				"direction": "outwards"
			},
			"minecraft:particle_lifetime_expression": {
				"max_lifetime": 0.5
			},
			"minecraft:particle_initial_spin": {
				"rotation": "math.random(0,360)",
				"rotation_rate": "math.random(0,720)"
			},
			"minecraft:particle_initial_speed": "math.random(1,2)",
			"minecraft:particle_motion_dynamic": {
				"linear_acceleration": [0, "variable.arc * math.random(0.1,2)", 0]
			},
			"minecraft:particle_appearance_billboard": {
				"size": ["0.05 * variable.size", "0.05 * variable.size"],
				"facing_camera_mode": "rotate_xyz",
				"uv": {
					"texture_width": 3,
					"texture_height": 3,
					"uv": [0, 0],
					"uv_size": [3, 3]
				}
			},
			"minecraft:particle_motion_collision": {
				"collision_radius": 0.05
			},
			"minecraft:particle_appearance_tinting": {
				"color": [1, 1, 1, 1]
			}
		}
	}
}