{
	"format_version": "1.8.0",
	"animations": {
		"animation.samurott.blink": {
			"animation_length": 0.1667,
			"bones": {
				"eyelid_left": {
					"position": {
						"0.0": [0.1, 0, -0.1],
						"0.12": [0.1, 0, -0.1],
						"0.16": [0, 0, 0]
					}
				},
				"eyelid_right": {
					"position": {
						"0.0": [-0.1, 0, -0.1],
						"0.12": [-0.1, 0, -0.1],
						"0.16": [0, 0, 0]
					}
				}
			}
		}
	}
}